/*
WARNING: Do NOT edit the input and output ports in this file in a text
editor if you plan to continue editing the block that represents it in
the Block Editor! File corruption is VERY likely to occur.
*/
/*
Copyright (C) 1991-2013 Altera Corporation
Your use of Altera Corporation's design tools, logic functions 
and other software and tools, and its AMPP partner logic 
functions, and any output files from any of the foregoing 
(including device programming or simulation files), and any 
associated documentation or information are expressly subject 
to the terms and conditions of the Altera Program License 
Subscription Agreement, Altera MegaCore Function License 
Agreement, or other applicable license agreement, including, 
without limitation, that your use is for the sole purpose of 
programming logic devices manufactured by Altera and sold by 
Altera or its authorized distributors.  Please refer to the 
applicable agreement for further details.
*/
(header "graphic" (version "1.4"))
(pin
	(input)
	(rect 120 160 288 176)
	(text "INPUT" (rect 125 0 153 10)(font "Arial" (font_size 6)))
	(text "clock" (rect 5 0 30 12)(font "Arial" ))
	(pt 168 8)
	(drawing
		(line (pt 84 12)(pt 109 12))
		(line (pt 84 4)(pt 109 4))
		(line (pt 113 8)(pt 168 8))
		(line (pt 84 12)(pt 84 4))
		(line (pt 109 4)(pt 113 8))
		(line (pt 109 12)(pt 113 8))
	)
	(text "VCC" (rect 128 7 148 17)(font "Arial" (font_size 6)))
)
(pin
	(input)
	(rect 120 192 288 208)
	(text "INPUT" (rect 125 0 153 10)(font "Arial" (font_size 6)))
	(text "reset" (rect 5 0 29 12)(font "Arial" ))
	(pt 168 8)
	(drawing
		(line (pt 84 12)(pt 109 12))
		(line (pt 84 4)(pt 109 4))
		(line (pt 113 8)(pt 168 8))
		(line (pt 84 12)(pt 84 4))
		(line (pt 109 4)(pt 113 8))
		(line (pt 109 12)(pt 113 8))
	)
	(text "VCC" (rect 128 7 148 17)(font "Arial" (font_size 6)))
)
(pin
	(output)
	(rect 160 40 336 56)
	(text "OUTPUT" (rect 137 6 175 16)(font "Arial" (font_size 6)))
	(text "out[0]" (rect 5 4 33 16)(font "Arial" ))
	(pt 176 8)
	(drawing
		(line (pt 176 8)(pt 124 8))
		(line (pt 124 12)(pt 98 12))
		(line (pt 124 4)(pt 98 4))
		(line (pt 124 4)(pt 124 12))
		(line (pt 98 12)(pt 94 8))
		(line (pt 94 8)(pt 98 4))
		(line (pt 98 4)(pt 94 8))
	)
	(rotate180)
)
(pin
	(output)
	(rect 160 8 336 24)
	(text "OUTPUT" (rect 137 6 175 16)(font "Arial" (font_size 6)))
	(text "out[1]" (rect 5 4 33 16)(font "Arial" ))
	(pt 176 8)
	(drawing
		(line (pt 176 8)(pt 124 8))
		(line (pt 124 12)(pt 98 12))
		(line (pt 124 4)(pt 98 4))
		(line (pt 124 4)(pt 124 12))
		(line (pt 98 12)(pt 94 8))
		(line (pt 94 8)(pt 98 4))
		(line (pt 98 4)(pt 94 8))
	)
	(rotate180)
)
(pin
	(output)
	(rect 160 -24 336 -8)
	(text "OUTPUT" (rect 137 6 175 16)(font "Arial" (font_size 6)))
	(text "out[2]" (rect 5 4 33 16)(font "Arial" ))
	(pt 176 8)
	(drawing
		(line (pt 176 8)(pt 124 8))
		(line (pt 124 12)(pt 98 12))
		(line (pt 124 4)(pt 98 4))
		(line (pt 124 4)(pt 124 12))
		(line (pt 98 12)(pt 94 8))
		(line (pt 94 8)(pt 98 4))
		(line (pt 98 4)(pt 94 8))
	)
	(rotate180)
)
(symbol
	(rect 392 72 456 152)
	(text "DFF" (rect 1 0 19 10)(font "Arial" (font_size 6)))
	(text "inst" (rect 3 68 20 80)(font "Arial" ))
	(port
		(pt 32 80)
		(input)
		(text "CLRN" (rect 21 59 44 71)(font "Courier New" (bold)))
		(text "CLRN" (rect 21 58 44 70)(font "Courier New" (bold)))
		(line (pt 32 80)(pt 32 76))
	)
	(port
		(pt 0 40)
		(input)
		(text "CLK" (rect 3 29 20 41)(font "Courier New" (bold))(invisible))
		(text "CLK" (rect 3 29 20 41)(font "Courier New" (bold))(invisible))
		(line (pt 0 40)(pt 12 40))
	)
	(port
		(pt 0 24)
		(input)
		(text "D" (rect 14 20 19 32)(font "Courier New" (bold)))
		(text "D" (rect 14 20 19 32)(font "Courier New" (bold)))
		(line (pt 0 24)(pt 12 24))
	)
	(port
		(pt 32 0)
		(input)
		(text "PRN" (rect 24 13 41 25)(font "Courier New" (bold)))
		(text "PRN" (rect 24 11 41 23)(font "Courier New" (bold)))
		(line (pt 32 4)(pt 32 0))
	)
	(port
		(pt 64 24)
		(output)
		(text "Q" (rect 45 20 50 32)(font "Courier New" (bold)))
		(text "Q" (rect 43 20 48 32)(font "Courier New" (bold)))
		(line (pt 52 24)(pt 64 24))
	)
	(drawing
		(line (pt 12 12)(pt 52 12))
		(line (pt 12 68)(pt 52 68))
		(line (pt 52 68)(pt 52 12))
		(line (pt 12 68)(pt 12 12))
		(line (pt 19 40)(pt 12 47))
		(line (pt 12 32)(pt 20 40))
		(circle (rect 28 4 36 12))
		(circle (rect 28 68 36 76))
	)
)
(symbol
	(rect 480 48 512 96)
	(text "NOT" (rect 0 27 10 47)(font "Arial" (font_size 6))(vertical))
	(text "inst8" (rect 21 22 33 45)(font "Arial" )(vertical))
	(port
		(pt 16 48)
		(input)
		(text "IN" (rect 2 7 13 19)(font "Courier New" (bold))(invisible))
		(text "IN" (rect 7 35 19 46)(font "Courier New" (bold))(vertical)(invisible))
		(line (pt 16 48)(pt 16 35))
	)
	(port
		(pt 16 0)
		(output)
		(text "OUT" (rect 32 7 49 19)(font "Courier New" (bold))(invisible))
		(text "OUT" (rect 7 -1 19 16)(font "Courier New" (bold))(vertical)(invisible))
		(line (pt 16 9)(pt 16 0))
	)
	(drawing
		(line (pt 25 35)(pt 7 35))
		(line (pt 7 35)(pt 16 17))
		(line (pt 25 35)(pt 16 17))
		(circle (rect 12 9 20 17))
	)
	(rotate90)
)
(symbol
	(rect 552 72 616 152)
	(text "DFF" (rect 1 0 19 10)(font "Arial" (font_size 6)))
	(text "inst1" (rect 3 68 26 80)(font "Arial" ))
	(port
		(pt 32 80)
		(input)
		(text "CLRN" (rect 21 59 44 71)(font "Courier New" (bold)))
		(text "CLRN" (rect 21 58 44 70)(font "Courier New" (bold)))
		(line (pt 32 80)(pt 32 76))
	)
	(port
		(pt 0 40)
		(input)
		(text "CLK" (rect 3 29 20 41)(font "Courier New" (bold))(invisible))
		(text "CLK" (rect 3 29 20 41)(font "Courier New" (bold))(invisible))
		(line (pt 0 40)(pt 12 40))
	)
	(port
		(pt 0 24)
		(input)
		(text "D" (rect 14 20 19 32)(font "Courier New" (bold)))
		(text "D" (rect 14 20 19 32)(font "Courier New" (bold)))
		(line (pt 0 24)(pt 12 24))
	)
	(port
		(pt 32 0)
		(input)
		(text "PRN" (rect 24 13 41 25)(font "Courier New" (bold)))
		(text "PRN" (rect 24 11 41 23)(font "Courier New" (bold)))
		(line (pt 32 4)(pt 32 0))
	)
	(port
		(pt 64 24)
		(output)
		(text "Q" (rect 45 20 50 32)(font "Courier New" (bold)))
		(text "Q" (rect 43 20 48 32)(font "Courier New" (bold)))
		(line (pt 52 24)(pt 64 24))
	)
	(drawing
		(line (pt 12 12)(pt 52 12))
		(line (pt 12 68)(pt 52 68))
		(line (pt 52 68)(pt 52 12))
		(line (pt 12 68)(pt 12 12))
		(line (pt 19 40)(pt 12 47))
		(line (pt 12 32)(pt 20 40))
		(circle (rect 28 4 36 12))
		(circle (rect 28 68 36 76))
	)
)
(symbol
	(rect 640 48 672 96)
	(text "NOT" (rect 0 27 10 47)(font "Arial" (font_size 6))(vertical))
	(text "inst9" (rect 21 22 33 45)(font "Arial" )(vertical))
	(port
		(pt 16 48)
		(input)
		(text "IN" (rect 2 7 13 19)(font "Courier New" (bold))(invisible))
		(text "IN" (rect 7 35 19 46)(font "Courier New" (bold))(vertical)(invisible))
		(line (pt 16 48)(pt 16 35))
	)
	(port
		(pt 16 0)
		(output)
		(text "OUT" (rect 32 7 49 19)(font "Courier New" (bold))(invisible))
		(text "OUT" (rect 7 -1 19 16)(font "Courier New" (bold))(vertical)(invisible))
		(line (pt 16 9)(pt 16 0))
	)
	(drawing
		(line (pt 25 35)(pt 7 35))
		(line (pt 7 35)(pt 16 17))
		(line (pt 25 35)(pt 16 17))
		(circle (rect 12 9 20 17))
	)
	(rotate90)
)
(symbol
	(rect 720 72 784 152)
	(text "DFF" (rect 1 0 19 10)(font "Arial" (font_size 6)))
	(text "inst2" (rect 3 68 26 80)(font "Arial" ))
	(port
		(pt 32 80)
		(input)
		(text "CLRN" (rect 21 59 44 71)(font "Courier New" (bold)))
		(text "CLRN" (rect 21 58 44 70)(font "Courier New" (bold)))
		(line (pt 32 80)(pt 32 76))
	)
	(port
		(pt 0 40)
		(input)
		(text "CLK" (rect 3 29 20 41)(font "Courier New" (bold))(invisible))
		(text "CLK" (rect 3 29 20 41)(font "Courier New" (bold))(invisible))
		(line (pt 0 40)(pt 12 40))
	)
	(port
		(pt 0 24)
		(input)
		(text "D" (rect 14 20 19 32)(font "Courier New" (bold)))
		(text "D" (rect 14 20 19 32)(font "Courier New" (bold)))
		(line (pt 0 24)(pt 12 24))
	)
	(port
		(pt 32 0)
		(input)
		(text "PRN" (rect 24 13 41 25)(font "Courier New" (bold)))
		(text "PRN" (rect 24 11 41 23)(font "Courier New" (bold)))
		(line (pt 32 4)(pt 32 0))
	)
	(port
		(pt 64 24)
		(output)
		(text "Q" (rect 45 20 50 32)(font "Courier New" (bold)))
		(text "Q" (rect 43 20 48 32)(font "Courier New" (bold)))
		(line (pt 52 24)(pt 64 24))
	)
	(drawing
		(line (pt 12 12)(pt 52 12))
		(line (pt 12 68)(pt 52 68))
		(line (pt 52 68)(pt 52 12))
		(line (pt 12 68)(pt 12 12))
		(line (pt 19 40)(pt 12 47))
		(line (pt 12 32)(pt 20 40))
		(circle (rect 28 4 36 12))
		(circle (rect 28 68 36 76))
	)
)
(symbol
	(rect 808 48 840 96)
	(text "NOT" (rect 0 27 10 47)(font "Arial" (font_size 6))(vertical))
	(text "inst10" (rect 21 22 33 51)(font "Arial" )(vertical))
	(port
		(pt 16 48)
		(input)
		(text "IN" (rect 2 7 13 19)(font "Courier New" (bold))(invisible))
		(text "IN" (rect 7 35 19 46)(font "Courier New" (bold))(vertical)(invisible))
		(line (pt 16 48)(pt 16 35))
	)
	(port
		(pt 16 0)
		(output)
		(text "OUT" (rect 32 7 49 19)(font "Courier New" (bold))(invisible))
		(text "OUT" (rect 7 -1 19 16)(font "Courier New" (bold))(vertical)(invisible))
		(line (pt 16 9)(pt 16 0))
	)
	(drawing
		(line (pt 25 35)(pt 7 35))
		(line (pt 7 35)(pt 16 17))
		(line (pt 25 35)(pt 16 17))
		(circle (rect 12 9 20 17))
	)
	(rotate90)
)
(symbol
	(rect 1064 -392 1128 -344)
	(text "OR2" (rect 1 0 19 10)(font "Arial" (font_size 6)))
	(text "inst15" (rect 3 37 32 49)(font "Arial" ))
	(port
		(pt 0 32)
		(input)
		(text "IN2" (rect 2 23 19 35)(font "Courier New" (bold))(invisible))
		(text "IN2" (rect 2 23 19 35)(font "Courier New" (bold))(invisible))
		(line (pt 0 32)(pt 15 32))
	)
	(port
		(pt 0 16)
		(input)
		(text "IN1" (rect 2 7 19 19)(font "Courier New" (bold))(invisible))
		(text "IN1" (rect 2 7 19 19)(font "Courier New" (bold))(invisible))
		(line (pt 0 16)(pt 15 16))
	)
	(port
		(pt 64 24)
		(output)
		(text "OUT" (rect 48 15 65 27)(font "Courier New" (bold))(invisible))
		(text "OUT" (rect 48 15 65 27)(font "Courier New" (bold))(invisible))
		(line (pt 48 24)(pt 64 24))
	)
	(drawing
		(line (pt 14 36)(pt 25 36))
		(line (pt 14 13)(pt 25 13))
		(arc (pt 7 29)(pt 7 19)(rect -14 8 19 41))
		(arc (pt 49 24)(pt 25 13)(rect -6 13 57 76))
		(arc (pt 25 35)(pt 49 24)(rect -6 -27 57 36))
	)
)
(symbol
	(rect 1064 -168 1128 -120)
	(text "OR3" (rect 1 0 19 10)(font "Arial" (font_size 6)))
	(text "inst12" (rect 3 37 32 49)(font "Arial" ))
	(port
		(pt 0 24)
		(input)
		(text "IN2" (rect 2 15 19 27)(font "Courier New" (bold))(invisible))
		(text "IN2" (rect 2 15 19 27)(font "Courier New" (bold))(invisible))
		(line (pt 0 24)(pt 18 24))
	)
	(port
		(pt 0 32)
		(input)
		(text "IN3" (rect 2 24 19 36)(font "Courier New" (bold))(invisible))
		(text "IN3" (rect 2 24 19 36)(font "Courier New" (bold))(invisible))
		(line (pt 0 32)(pt 16 32))
	)
	(port
		(pt 0 16)
		(input)
		(text "IN1" (rect 2 7 19 19)(font "Courier New" (bold))(invisible))
		(text "IN1" (rect 2 7 19 19)(font "Courier New" (bold))(invisible))
		(line (pt 0 16)(pt 16 16))
	)
	(port
		(pt 64 24)
		(output)
		(text "OUT" (rect 47 15 64 27)(font "Courier New" (bold))(invisible))
		(text "OUT" (rect 47 15 64 27)(font "Courier New" (bold))(invisible))
		(line (pt 49 24)(pt 64 24))
	)
	(drawing
		(line (pt 14 13)(pt 25 13))
		(line (pt 14 36)(pt 25 36))
		(arc (pt 7 29)(pt 7 19)(rect -14 8 19 41))
		(arc (pt 49 24)(pt 25 13)(rect -6 13 57 76))
		(arc (pt 25 35)(pt 49 24)(rect -6 -27 57 36))
	)
)
(symbol
	(rect 944 -104 1008 -56)
	(text "AND2" (rect 1 0 25 10)(font "Arial" (font_size 6)))
	(text "inst4" (rect 3 37 26 49)(font "Arial" ))
	(port
		(pt 0 16)
		(input)
		(text "IN1" (rect 2 7 19 19)(font "Courier New" (bold))(invisible))
		(text "IN1" (rect 2 7 19 19)(font "Courier New" (bold))(invisible))
		(line (pt 0 16)(pt 14 16))
	)
	(port
		(pt 0 32)
		(input)
		(text "IN2" (rect 2 23 19 35)(font "Courier New" (bold))(invisible))
		(text "IN2" (rect 2 23 19 35)(font "Courier New" (bold))(invisible))
		(line (pt 0 32)(pt 14 32))
	)
	(port
		(pt 64 24)
		(output)
		(text "OUT" (rect 48 15 65 27)(font "Courier New" (bold))(invisible))
		(text "OUT" (rect 48 15 65 27)(font "Courier New" (bold))(invisible))
		(line (pt 42 24)(pt 64 24))
	)
	(drawing
		(line (pt 14 12)(pt 30 12))
		(line (pt 14 37)(pt 31 37))
		(line (pt 14 12)(pt 14 37))
		(arc (pt 31 37)(pt 30 12)(rect 18 12 43 37))
	)
)
(symbol
	(rect 944 -168 1008 -120)
	(text "AND2" (rect 1 0 25 10)(font "Arial" (font_size 6)))
	(text "inst5" (rect 3 37 26 49)(font "Arial" ))
	(port
		(pt 0 16)
		(input)
		(text "IN1" (rect 2 7 19 19)(font "Courier New" (bold))(invisible))
		(text "IN1" (rect 2 7 19 19)(font "Courier New" (bold))(invisible))
		(line (pt 0 16)(pt 14 16))
	)
	(port
		(pt 0 32)
		(input)
		(text "IN2" (rect 2 23 19 35)(font "Courier New" (bold))(invisible))
		(text "IN2" (rect 2 23 19 35)(font "Courier New" (bold))(invisible))
		(line (pt 0 32)(pt 14 32))
	)
	(port
		(pt 64 24)
		(output)
		(text "OUT" (rect 48 15 65 27)(font "Courier New" (bold))(invisible))
		(text "OUT" (rect 48 15 65 27)(font "Courier New" (bold))(invisible))
		(line (pt 42 24)(pt 64 24))
	)
	(drawing
		(line (pt 14 12)(pt 30 12))
		(line (pt 14 37)(pt 31 37))
		(line (pt 14 12)(pt 14 37))
		(arc (pt 31 37)(pt 30 12)(rect 18 12 43 37))
	)
)
(symbol
	(rect 944 -232 1008 -184)
	(text "AND2" (rect 1 0 25 10)(font "Arial" (font_size 6)))
	(text "inst6" (rect 3 37 26 49)(font "Arial" ))
	(port
		(pt 0 16)
		(input)
		(text "IN1" (rect 2 7 19 19)(font "Courier New" (bold))(invisible))
		(text "IN1" (rect 2 7 19 19)(font "Courier New" (bold))(invisible))
		(line (pt 0 16)(pt 14 16))
	)
	(port
		(pt 0 32)
		(input)
		(text "IN2" (rect 2 23 19 35)(font "Courier New" (bold))(invisible))
		(text "IN2" (rect 2 23 19 35)(font "Courier New" (bold))(invisible))
		(line (pt 0 32)(pt 14 32))
	)
	(port
		(pt 64 24)
		(output)
		(text "OUT" (rect 48 15 65 27)(font "Courier New" (bold))(invisible))
		(text "OUT" (rect 48 15 65 27)(font "Courier New" (bold))(invisible))
		(line (pt 42 24)(pt 64 24))
	)
	(drawing
		(line (pt 14 12)(pt 30 12))
		(line (pt 14 37)(pt 31 37))
		(line (pt 14 12)(pt 14 37))
		(arc (pt 31 37)(pt 30 12)(rect 18 12 43 37))
	)
)
(symbol
	(rect 1064 -296 1128 -248)
	(text "OR2" (rect 1 0 19 10)(font "Arial" (font_size 6)))
	(text "inst19" (rect 3 37 32 49)(font "Arial" ))
	(port
		(pt 0 32)
		(input)
		(text "IN2" (rect 2 23 19 35)(font "Courier New" (bold))(invisible))
		(text "IN2" (rect 2 23 19 35)(font "Courier New" (bold))(invisible))
		(line (pt 0 32)(pt 15 32))
	)
	(port
		(pt 0 16)
		(input)
		(text "IN1" (rect 2 7 19 19)(font "Courier New" (bold))(invisible))
		(text "IN1" (rect 2 7 19 19)(font "Courier New" (bold))(invisible))
		(line (pt 0 16)(pt 15 16))
	)
	(port
		(pt 64 24)
		(output)
		(text "OUT" (rect 48 15 65 27)(font "Courier New" (bold))(invisible))
		(text "OUT" (rect 48 15 65 27)(font "Courier New" (bold))(invisible))
		(line (pt 48 24)(pt 64 24))
	)
	(drawing
		(line (pt 14 36)(pt 25 36))
		(line (pt 14 13)(pt 25 13))
		(arc (pt 7 29)(pt 7 19)(rect -14 8 19 41))
		(arc (pt 49 24)(pt 25 13)(rect -6 13 57 76))
		(arc (pt 25 35)(pt 49 24)(rect -6 -27 57 36))
	)
)
(symbol
	(rect 936 -360 1000 -312)
	(text "AND2" (rect 1 0 25 10)(font "Arial" (font_size 6)))
	(text "inst7" (rect 3 37 26 49)(font "Arial" ))
	(port
		(pt 0 16)
		(input)
		(text "IN1" (rect 2 7 19 19)(font "Courier New" (bold))(invisible))
		(text "IN1" (rect 2 7 19 19)(font "Courier New" (bold))(invisible))
		(line (pt 0 16)(pt 14 16))
	)
	(port
		(pt 0 32)
		(input)
		(text "IN2" (rect 2 23 19 35)(font "Courier New" (bold))(invisible))
		(text "IN2" (rect 2 23 19 35)(font "Courier New" (bold))(invisible))
		(line (pt 0 32)(pt 14 32))
	)
	(port
		(pt 64 24)
		(output)
		(text "OUT" (rect 48 15 65 27)(font "Courier New" (bold))(invisible))
		(text "OUT" (rect 48 15 65 27)(font "Courier New" (bold))(invisible))
		(line (pt 42 24)(pt 64 24))
	)
	(drawing
		(line (pt 14 12)(pt 30 12))
		(line (pt 14 37)(pt 31 37))
		(line (pt 14 12)(pt 14 37))
		(arc (pt 31 37)(pt 30 12)(rect 18 12 43 37))
	)
)
(symbol
	(rect 936 -424 1000 -376)
	(text "AND2" (rect 1 0 25 10)(font "Arial" (font_size 6)))
	(text "inst11" (rect 3 37 32 49)(font "Arial" ))
	(port
		(pt 0 16)
		(input)
		(text "IN1" (rect 2 7 19 19)(font "Courier New" (bold))(invisible))
		(text "IN1" (rect 2 7 19 19)(font "Courier New" (bold))(invisible))
		(line (pt 0 16)(pt 14 16))
	)
	(port
		(pt 0 32)
		(input)
		(text "IN2" (rect 2 23 19 35)(font "Courier New" (bold))(invisible))
		(text "IN2" (rect 2 23 19 35)(font "Courier New" (bold))(invisible))
		(line (pt 0 32)(pt 14 32))
	)
	(port
		(pt 64 24)
		(output)
		(text "OUT" (rect 48 15 65 27)(font "Courier New" (bold))(invisible))
		(text "OUT" (rect 48 15 65 27)(font "Courier New" (bold))(invisible))
		(line (pt 42 24)(pt 64 24))
	)
	(drawing
		(line (pt 14 12)(pt 30 12))
		(line (pt 14 37)(pt 31 37))
		(line (pt 14 12)(pt 14 37))
		(arc (pt 31 37)(pt 30 12)(rect 18 12 43 37))
	)
)
(connector
	(pt 384 112)
	(pt 384 168)
)
(connector
	(pt 392 112)
	(pt 384 112)
)
(connector
	(pt 288 168)
	(pt 384 168)
)
(connector
	(pt 544 112)
	(pt 544 168)
)
(connector
	(pt 552 112)
	(pt 544 112)
)
(connector
	(pt 616 96)
	(pt 624 96)
)
(connector
	(pt 624 96)
	(pt 656 96)
)
(connector
	(pt 384 168)
	(pt 544 168)
)
(connector
	(pt 712 112)
	(pt 712 168)
)
(connector
	(pt 720 112)
	(pt 712 112)
)
(connector
	(pt 544 168)
	(pt 712 168)
)
(connector
	(pt 456 96)
	(pt 464 96)
)
(connector
	(pt 464 96)
	(pt 496 96)
)
(connector
	(pt 336 16)
	(pt 624 16)
)
(connector
	(pt 336 48)
	(pt 464 48)
)
(connector
	(pt 784 96)
	(pt 792 96)
)
(connector
	(pt 792 96)
	(pt 824 96)
)
(connector
	(pt 792 -16)
	(pt 336 -16)
)
(connector
	(pt 464 48)
	(pt 464 96)
)
(connector
	(pt 624 16)
	(pt 624 96)
)
(connector
	(pt 792 -16)
	(pt 792 96)
)
(connector
	(pt 1008 -144)
	(pt 1064 -144)
)
(connector
	(pt 1064 -152)
	(pt 1064 -208)
)
(connector
	(pt 1064 -208)
	(pt 1008 -208)
)
(connector
	(pt 1064 -80)
	(pt 1008 -80)
)
(connector
	(pt 1064 -80)
	(pt 1064 -136)
)
(connector
	(pt 1000 -400)
	(pt 1064 -400)
)
(connector
	(pt 1064 -400)
	(pt 1064 -376)
)
(connector
	(pt 1000 -336)
	(pt 1064 -336)
)
(connector
	(pt 1064 -336)
	(pt 1064 -360)
)
(connector
	(pt 936 -408)
	(pt 624 -408)
)
(connector
	(pt 936 -344)
	(pt 624 -344)
)
(connector
	(pt 936 -328)
	(pt 824 -328)
)
(connector
	(pt 1064 -280)
	(pt 656 -280)
)
(connector
	(pt 1064 -264)
	(pt 824 -264)
)
(connector
	(pt 944 -216)
	(pt 656 -216)
)
(connector
	(pt 944 -200)
	(pt 792 -200)
)
(connector
	(pt 624 -344)
	(pt 624 16)
)
(connector
	(pt 656 -216)
	(pt 656 48)
)
(connector
	(pt 824 -456)
	(pt 824 -328)
)
(connector
	(pt 824 -328)
	(pt 824 -264)
)
(connector
	(pt 792 -456)
	(pt 792 -200)
)
(connector
	(pt 656 -456)
	(pt 656 -280)
)
(connector
	(pt 656 -280)
	(pt 656 -216)
)
(connector
	(pt 624 -456)
	(pt 624 -408)
)
(connector
	(pt 624 -408)
	(pt 624 -344)
)
(connector
	(pt 392 96)
	(pt 376 96)
)
(connector
	(pt 552 96)
	(pt 536 96)
)
(connector
	(pt 720 96)
	(pt 704 96)
)
(connector
	(pt 752 152)
	(pt 752 200)
)
(connector
	(pt 1128 -144)
	(pt 1232 -144)
)
(connector
	(pt 1128 -272)
	(pt 1248 -272)
)
(connector
	(pt 1128 -368)
	(pt 1264 -368)
)
(connector
	(pt 424 152)
	(pt 424 200)
)
(connector
	(pt 584 152)
	(pt 584 200)
)
(connector
	(pt 424 200)
	(pt 584 200)
)
(connector
	(pt 584 200)
	(pt 752 200)
)
(connector
	(pt 288 200)
	(pt 424 200)
)
(connector
	(pt 704 248)
	(pt 1264 248)
)
(connector
	(pt 704 96)
	(pt 704 248)
)
(connector
	(pt 1264 -368)
	(pt 1264 248)
)
(connector
	(pt 536 96)
	(pt 536 232)
)
(connector
	(pt 536 232)
	(pt 1248 232)
)
(connector
	(pt 1248 -272)
	(pt 1248 232)
)
(connector
	(pt 376 96)
	(pt 376 216)
)
(connector
	(pt 376 216)
	(pt 1232 216)
)
(connector
	(pt 1232 -144)
	(pt 1232 216)
)
(connector
	(pt 496 -392)
	(pt 936 -392)
)
(connector
	(pt 496 -456)
	(pt 496 -392)
)
(connector
	(pt 496 -152)
	(pt 944 -152)
)
(connector
	(pt 496 -392)
	(pt 496 -152)
)
(connector
	(pt 496 -152)
	(pt 496 48)
)
(connector
	(pt 944 -136)
	(pt 792 -136)
)
(connector
	(pt 792 -200)
	(pt 792 -136)
)
(connector
	(pt 792 -136)
	(pt 792 -16)
)
(connector
	(pt 944 -88)
	(pt 464 -88)
)
(connector
	(pt 464 -456)
	(pt 464 -88)
)
(connector
	(pt 464 -88)
	(pt 464 48)
)
(connector
	(pt 944 -72)
	(pt 824 -72)
)
(connector
	(pt 824 -264)
	(pt 824 -72)
)
(connector
	(pt 824 -72)
	(pt 824 48)
)
(junction (pt 384 168))
(junction (pt 464 96))
(junction (pt 624 96))
(junction (pt 544 168))
(junction (pt 792 96))
(junction (pt 624 16))
(junction (pt 464 48))
(junction (pt 792 -16))
(junction (pt 624 -408))
(junction (pt 624 -344))
(junction (pt 656 -280))
(junction (pt 656 -216))
(junction (pt 824 -264))
(junction (pt 824 -328))
(junction (pt 792 -200))
(junction (pt 424 200))
(junction (pt 584 200))
(junction (pt 496 -392))
(junction (pt 496 -152))
(junction (pt 792 -136))
(junction (pt 464 -88))
(junction (pt 824 -72))
